com\charudet\reportproject\Report1$1.class
com\charudet\reportproject\Artist.class
com\charudet\reportproject\ArtistService.class
com\charudet\reportproject\ArtistReport.class
com\charudet\reportproject\ReportProject.class
com\charudet\reportproject\ArtistDao.class
com\charudet\reportproject\Report1$2.class
com\charudet\reportproject\DatabaseHelper.class
com\charudet\reportproject\DateLabelFormatter.class
com\charudet\reportproject\Report1.class
com\charudet\reportproject\Dao.class
com\charudet\reportproject\Report1$3.class
